{
    "data": {
        "01": {
            "version": 6,
            "file": "01.png",
            "w": 88,
            "h": 152,
            "x": 27.65,
            "y": 73.73,
            "d": "l",
            "accessories": 0,
            "overlap": 0,
            "hPitch": 1,
            "hYaw": 1,
            "hRoll": 0
        },
        "02": {
            "version": 6,
            "file": "02.png",
            "w": 55,
            "h": 114,
            "x": 18.43,
            "y": 73.73,
            "d": "l",
            "accessories": 0,
            "overlap": 0,
            "hPitch": -1,
            "hYaw": 1,
            "hRoll": 0
        },
        "03": {
            "version": 6,
            "file": "03.png",
            "w": 83,
            "h": 132,
            "x": 15.36,
            "y": 75.26,
            "d": "l",
            "accessories": 0,
            "overlap": 0,
            "hPitch": -1,
            "hYaw": 1,
            "hRoll": 0
        },
        "04": {
            "version": 6,
            "file": "04.png",
            "w": 89,
            "h": 179,
            "x": 51.2,
            "y": 108.8,
            "d": "r",
            "accessories": 0,
            "overlap": 0,
            "hPitch": -1,
            "hYaw": 1,
            "hRoll": 1
        },
        "05": {
            "version": 6,
            "file": "05.png",
            "w": 31,
            "h": 50,
            "d": "r",
            "accessories": 0,
            "overlap": 0,
            "hPitch": -1,
            "hYaw": 2,
            "hRoll": 0,
            "x": 21.4,
            "y": 30.44
        }
    },
    "sex": "m",
    "ethnicity": 1
}