{
    "data": {
        "01": {
            "version": 6,
            "file": "01.png",
            "w": 59,
            "h": 68,
            "x": 44.3,
            "y": 35.78,
            "d": "r",
            "accessories": 0,
            "overlap": 0,
            "hPitch": 0,
            "hYaw": 0,
            "hRoll": 0
        },
        "02": {
            "version": 6,
            "file": "02.png",
            "w": 89,
            "h": 133,
            "x": 21.81,
            "y": 88.42,
            "d": "l",
            "accessories": 0,
            "overlap": 0,
            "hPitch": 0,
            "hYaw": 0,
            "hRoll": 0
        },
        "03": {
            "version": 6,
            "file": "03.png",
            "w": 44,
            "h": 60,
            "d": "l",
            "accessories": 0,
            "overlap": 0,
            "hPitch": 1,
            "hYaw": 1,
            "hRoll": 0,
            "x": 20.52,
            "y": 30.77
        },
        "04": {
            "version": 6,
            "file": "04.png",
            "w": 74,
            "h": 110,
            "d": "r",
            "accessories": 0,
            "overlap": 0,
            "hPitch": 0,
            "hYaw": 1,
            "hRoll": 1,
            "x": 49.28,
            "y": 64.55
        },
        "05": {
            "version": 6,
            "file": "05.png",
            "w": 88,
            "h": 134,
            "x": 35.91,
            "y": 79.44,
            "d": "l",
            "accessories": 0,
            "overlap": 0,
            "hPitch": -1,
            "hYaw": 1,
            "hRoll": 0
        }
    },
    "sex": "m",
    "ethnicity": 1
}