{
    "data": {
        "01": {
            "version": 6,
            "file": "01.png",
            "w": 281,
            "h": 481,
            "x": 232,
            "y": 294,
            "d": "r",
            "accessories": 0,
            "overlap": 0,
            "hPitch": 0,
            "hYaw": 1,
            "hRoll": 0
        },
        "02": {
            "version": 6,
            "file": "02.png",
            "w": 166,
            "h": 292,
            "x": 39.6,
            "y": 165,
            "d": "l",
            "accessories": 0,
            "overlap": 1,
            "hPitch": 0,
            "hYaw": 1,
            "hRoll": 0
        },
        "03": {
            "version": 6,
            "file": "03.png",
            "w": 87,
            "h": 114,
            "x": 71.59,
            "y": 58.46,
            "d": "r",
            "accessories": 0,
            "overlap": 1,
            "hPitch": 0,
            "hYaw": 1,
            "hRoll": 0
        },
        "04": {
            "version": 6,
            "file": "04.png",
            "w": 64,
            "h": 94,
            "x": 47.94,
            "y": 50.76,
            "d": "r",
            "accessories": 0,
            "overlap": 1,
            "hPitch": 0,
            "hYaw": 1,
            "hRoll": 0
        },
        "05": {
            "version": 6,
            "file": "05.png",
            "w": 171,
            "h": 274,
            "x": 30.24,
            "y": 146.54,
            "d": "l",
            "accessories": 0,
            "overlap": 1,
            "hPitch": 0,
            "hYaw": 0,
            "hRoll": 0
        }
    },
    "sex": "m",
    "ethnicity": 1
}